…
```
## Warning: NAs introduced by coercion
```

```r
inlet_biochem
```

```
## # A tibble: 26 x 4
##      p_h doc_u_m tdn_u_m site        
##    <dbl>   <dbl>   <dbl> <chr>       
##  1  5.3      995    24.3 Toolik Inlet
##  2  5.86     917    20.5 Toolik Inlet
##  3  5.87     803    20   Toolik Inlet
##  4  6.75     731    18.5 Toolik Inlet
##  5  6.18     676    17   Toolik Inlet
##  6  7.53     396    10.5 Toolik Inlet
##  7  7.56     338    10.6 Toolik Inlet
##  8  7.41     244    11.1 Toolik Inlet
##  9  7.52     451    10.5 Toolik Inlet
## 10  7.86     246    13.5 Toolik Inlet
## # ... with 16 more rows
```
…
